risc_pipeline.vcd
$date
	Sun Jan 19 07:27:24 2025
$end
$version
	Icarus Verilog
$end
$timescale
	1ps
$end
$scope module top $end
$var reg 1 ! clk $end
$var reg 1 " rst $end
$scope module uut $end
$var wire 1 ! clk $end
$var wire 16 # if_pc [15:0] $end
$var wire 1 " rst $end
$var wire 3 $ wb_rt [2:0] $end
$var wire 1 % wb_reg_write $end
$var wire 16 & wb_read_data [15:0] $end
$var wire 3 ' wb_rd [2:0] $end
$var wire 16 ( wb_pc [15:0] $end
$var wire 4 ) wb_opcode [3:0] $end
$var wire 1 * wb_mem_to_reg $end
$var wire 1 + wb_link_jal $end
$var wire 16 , wb_alu_result [15:0] $end
$var wire 16 - val_rt [15:0] $end
$var wire 16 . val_rs [15:0] $end
$var wire 16 / pc_next [15:0] $end
$var wire 16 0 mem_val_rt [15:0] $end
$var wire 3 1 mem_rt [2:0] $end
$var wire 1 2 mem_reg_write $end
$var wire 16 3 mem_read_data [15:0] $end
$var wire 3 4 mem_rd [2:0] $end
$var wire 16 5 mem_pc [15:0] $end
$var wire 4 6 mem_opcode [3:0] $end
$var wire 1 7 mem_mem_write $end
$var wire 1 8 mem_mem_to_reg $end
$var wire 1 9 mem_mem_read $end
$var wire 1 : mem_link_jal $end
$var wire 1 ; mem_branch_taken $end
$var wire 16 < mem_alu_result [15:0] $end
$var wire 16 = jump_target [15:0] $end
$var wire 16 > if_instr [15:0] $end
$var wire 3 ? id_shamt [2:0] $end
$var wire 3 @ id_rt [2:0] $end
$var wire 3 A id_rs [2:0] $end
$var wire 3 B id_rd [2:0] $end
$var wire 16 C id_pc [15:0] $end
$var wire 4 D id_opcode [3:0] $end
$var wire 16 E id_instr [15:0] $end
$var wire 6 F id_imm [5:0] $end
$var wire 12 G id_address [11:0] $end
$var wire 1 H hazard_stall $end
$var wire 16 I ex_val_rt [15:0] $end
$var wire 16 J ex_val_rs [15:0] $end
$var wire 3 K ex_shamt [2:0] $end
$var wire 3 L ex_rt [2:0] $end
$var wire 3 M ex_rs [2:0] $end
$var wire 1 N ex_reg_write $end
$var wire 1 O ex_reg_dst_rd $end
$var wire 3 P ex_rd [2:0] $end
$var wire 16 Q ex_pc [15:0] $end
$var wire 4 R ex_opcode [3:0] $end
$var wire 16 S ex_op2 [15:0] $end
$var wire 1 T ex_mem_write $end
$var wire 1 U ex_mem_to_reg $end
$var wire 1 V ex_mem_read $end
$var wire 1 W ex_link_jal $end
$var wire 1 X ex_jump_or_branch $end
$var wire 6 Y ex_imm [5:0] $end
$var wire 1 Z ex_alu_src_imm $end
$var wire 12 [ ex_address [11:0] $end
$var wire 1 \ c_reg_write $end
$var wire 1 ] c_reg_dst_rd $end
$var wire 1 ^ c_mem_write $end
$var wire 1 _ c_mem_to_reg $end
$var wire 1 ` c_mem_read $end
$var wire 1 a c_link_jal $end
$var wire 1 b c_jump_or_branch $end
$var wire 1 c c_alu_src_imm $end
$var wire 16 d branch_target [15:0] $end
$var wire 1 e branch_taken $end
$var wire 16 f alu_out [15:0] $end
$var reg 1 g flush $end
$var reg 16 h pc [15:0] $end
$scope module alu $end
$var wire 16 i val_rt [15:0] $end
$var wire 16 j val_rs [15:0] $end
$var wire 3 k shamt [2:0] $end
$var wire 6 l imm6 [5:0] $end
$var wire 4 m alu_op [3:0] $end
$var reg 16 n alu_out [15:0] $end
$var reg 1 e branch_taken $end
$var reg 16 o s_imm [15:0] $end
$var reg 16 p srs [15:0] $end
$var reg 16 q srt [15:0] $end
$upscope $end
$scope module ctrl_unit $end
$var wire 4 r opcode [3:0] $end
$var reg 1 c alu_src_imm $end
$var reg 1 b jump_or_branch $end
$var reg 1 a link_jal $end
$var reg 1 ` mem_read $end
$var reg 1 _ mem_to_reg $end
$var reg 1 ^ mem_write $end
$var reg 1 ] reg_dst_rd $end
$var reg 1 \ reg_write $end
$upscope $end
$scope module data_mem $end
$var wire 1 ! clk $end
$var wire 16 s write_data [15:0] $end
$var wire 1 7 mem_write $end
$var wire 1 9 mem_read $end
$var wire 16 t address [15:0] $end
$var reg 16 u read_data [15:0] $end
$var integer 32 v i [31:0] $end
$upscope $end
$scope module hazard $end
$var wire 3 w if_id_rs [2:0] $end
$var wire 3 x if_id_rt [2:0] $end
$var wire 3 y id_ex_rt [2:0] $end
$var wire 4 z id_ex_opcode [3:0] $end
$var wire 1 V id_ex_mem_read $end
$var reg 1 H stall $end
$upscope $end
$scope module instr_mem $end
$var wire 8 { addr [7:0] $end
$var wire 16 | instr [15:0] $end
$scope begin $unm_blk_8 $end
$var integer 32 } i [31:0] $end
$upscope $end
$upscope $end
$scope module pipe_regs $end
$var wire 1 ! clk $end
$var wire 16 ~ ex_alu_result_in [15:0] $end
$var wire 1 e ex_branch_taken_in $end
$var wire 1 g flush $end
$var wire 12 !" id_address_in [11:0] $end
$var wire 1 c id_alu_src_imm_in $end
$var wire 6 "" id_imm_in [5:0] $end
$var wire 1 b id_jump_or_branch_in $end
$var wire 1 a id_link_jal_in $end
$var wire 1 ` id_mem_read_in $end
$var wire 1 _ id_mem_to_reg_in $end
$var wire 1 ^ id_mem_write_in $end
$var wire 4 #" id_opcode_in [3:0] $end
$var wire 3 $" id_rd_in [2:0] $end
$var wire 1 ] id_reg_dst_rd_in $end
$var wire 1 \ id_reg_write_in $end
$var wire 3 %" id_rs_in [2:0] $end
$var wire 3 &" id_rt_in [2:0] $end
$var wire 3 '" id_shamt_in [2:0] $end
$var wire 16 (" if_instr_in [15:0] $end
$var wire 16 )" if_pc_in [15:0] $end
$var wire 16 *" mem_read_data_in [15:0] $end
$var wire 1 " rst $end
$var wire 1 H stall $end
$var wire 1 2 mem_reg_write_in $end
$var wire 1 8 mem_mem_to_reg_in $end
$var wire 1 : mem_link_jal_in $end
$var wire 16 +" id_val_rt_in [15:0] $end
$var wire 16 ," id_val_rs_in [15:0] $end
$var wire 1 N ex_reg_write_in $end
$var wire 1 T ex_mem_write_in $end
$var wire 1 U ex_mem_to_reg_in $end
$var wire 1 V ex_mem_read_in $end
$var wire 1 W ex_link_jal_in $end
$var parameter 32 -" WIDTH $end
$var reg 12 ." ex_address_out [11:0] $end
$var reg 1 Z ex_alu_src_imm_out $end
$var reg 6 /" ex_imm_out [5:0] $end
$var reg 1 X ex_jump_or_branch_out $end
$var reg 1 W ex_link_jal_out $end
$var reg 1 V ex_mem_read_out $end
$var reg 1 U ex_mem_to_reg_out $end
$var reg 1 T ex_mem_write_out $end
$var reg 4 0" ex_opcode_out [3:0] $end
$var reg 16 1" ex_pc_out [15:0] $end
$var reg 3 2" ex_rd_out [2:0] $end
$var reg 1 O ex_reg_dst_rd_out $end
$var reg 1 N ex_reg_write_out $end
$var reg 3 3" ex_rs_out [2:0] $end
$var reg 3 4" ex_rt_out [2:0] $end
$var reg 3 5" ex_shamt_out [2:0] $end
$var reg 16 6" ex_val_rs_out [15:0] $end
$var reg 16 7" ex_val_rt_out [15:0] $end
$var reg 16 8" id_instr_out [15:0] $end
$var reg 16 9" id_pc_out [15:0] $end
$var reg 16 :" mem_alu_result_out [15:0] $end
$var reg 1 ; mem_branch_taken_out $end
$var reg 1 : mem_link_jal_out $end
$var reg 1 9 mem_mem_read_out $end
$var reg 1 8 mem_mem_to_reg_out $end
$var reg 1 7 mem_mem_write_out $end
$var reg 4 ;" mem_opcode_out [3:0] $end
$var reg 16 <" mem_pc_out [15:0] $end
$var reg 3 =" mem_rd_out [2:0] $end
$var reg 1 2 mem_reg_write_out $end
$var reg 3 >" mem_rt_out [2:0] $end
$var reg 16 ?" mem_val_rt_out [15:0] $end
$var reg 16 @" wb_alu_result_out [15:0] $end
$var reg 1 + wb_link_jal_out $end
$var reg 1 * wb_mem_to_reg_out $end
$var reg 4 A" wb_opcode_out [3:0] $end
$var reg 16 B" wb_pc_out [15:0] $end
$var reg 3 C" wb_rd_out [2:0] $end
$var reg 16 D" wb_read_data_out [15:0] $end
$var reg 1 % wb_reg_write_out $end
$var reg 3 E" wb_rt_out [2:0] $end
$upscope $end
$scope module regfile $end
$var wire 1 ! clk $end
$var wire 3 F" raddr1 [2:0] $end
$var wire 3 G" raddr2 [2:0] $end
$var wire 16 H" rdata1 [15:0] $end
$var wire 16 I" rdata2 [15:0] $end
$var wire 3 J" waddr [2:0] $end
$var wire 16 K" wdata [15:0] $end
$var wire 1 % we $end
$var integer 32 L" i [31:0] $end
$upscope $end
$upscope $end
$upscope $end
$enddefinitions $end
$comment Show the parameter values. $end
$dumpall
b10000 -"
$end
#0
$dumpvars
b1000 L"
b0 K"
b0 J"
b0 I"
b0 H"
b0 G"
b0 F"
b0 E"
b0 D"
b0 C"
b0 B"
b1111 A"
b0 @"
b0 ?"
b0 >"
b0 ="
b0 <"
b1111 ;"
b0 :"
b0 9"
b0 8"
b0 7"
b0 6"
b0 5"
b0 4"
b0 3"
b0 2"
b0 1"
b1111 0"
b0 /"
b0 ."
b0 ,"
b0 +"
b0 *"
b0 )"
b0 ("
b0 '"
b0 &"
b0 %"
b0 $"
b0 #"
b0 ""
b0 !"
b0 ~
b100000000 }
b0 |
b0 {
b1111 z
b0 y
b0 x
b0 w
b100000000 v
b0 u
b0 t
b0 s
b0 r
b0 q
b0 p
b0 o
b0 n
b1111 m
b0 l
b0 k
b0 j
b0 i
b0 h
0g
b0 f
0e
b0 d
0c
0b
0a
0`
0_
0^
1]
1\
b0 [
0Z
b0 Y
0X
0W
0V
0U
0T
b0 S
b1111 R
b0 Q
b0 P
0O
0N
b0 M
b0 L
b0 K
b0 J
b0 I
0H
b0 G
b0 F
b0 E
b0 D
b0 C
b0 B
b0 A
b0 @
b0 ?
b0 >
b0 =
b0 <
0;
0:
09
08
07
b1111 6
b0 5
b0 4
b0 3
02
b0 1
b0 0
b1 /
b0 .
b0 -
b0 ,
0+
0*
b1111 )
b0 (
b0 '
b0 &
0%
b0 $
b0 #
1"
0!
$end
#5000
1!
#10000
0!
#15000
1!
#20000
0!
b1000 >
b1000 |
b1000 ("
0"
#25000
b10 /
b111001010000101 >
b111001010000101 |
b111001010000101 ("
b1 {
b1000 G
b1000 !"
b1000 F
b1000 ""
b1 B
b1 $"
b1 #
b1 )"
b1 h
1O
1N
b0 R
b0 m
b0 z
b0 0"
b1000 E
b1000 8"
1!
#30000
0!
#35000
b11 /
1c
0]
1\
b111 D
b111 r
b111 #"
b1010000101 G
b1010000101 !"
b101 F
b101 ""
b101 ?
b101 '"
b0 B
b0 $"
b10 @
b10 x
b10 &"
b10 G"
b1 A
b1 w
b1 %"
b1 F"
b1000 =
b1000 o
b10010011000 >
b10010011000 |
b10010011000 ("
b10 {
b1 C
b1 9"
b111001010000101 E
b111001010000101 8"
b1000 [
b1000 ."
b1000 d
b1000 Y
b1000 l
b1000 /"
b1 P
b1 2"
b0 6
b0 ;"
12
b10 #
b10 )"
b10 h
1!
#40000
0!
#45000
b100 /
b101 q
1]
0c
1\
b1001000011000000 >
b1001000011000000 |
b1001000011000000 ("
b11 {
b101 S
b101 i
b1010000101 =
b101 f
b101 n
b101 ~
b101 o
b0 D
b0 r
b0 #"
b10010011000 G
b10010011000 !"
b11000 F
b11000 ""
b0 ?
b0 '"
b11 B
b11 $"
b10 A
b10 w
b10 %"
b10 F"
b11 #
b11 )"
b11 h
b0 )
b0 A"
1%
b1 4
b1 ="
b1 Q
b1 1"
0O
1Z
b1010000101 [
b1010000101 ."
b110 d
b101 Y
b101 l
b101 /"
b101 K
b101 k
b101 5"
b0 P
b0 2"
b10 L
b10 y
b10 4"
b1 M
b1 3"
b111 R
b111 m
b111 z
b111 0"
b10 C
b10 9"
b10010011000 E
b10010011000 8"
1!
#50000
0!
#55000
b101 /
1c
1^
0]
0\
b0 q
b1001 D
b1001 r
b1001 #"
b11000000 G
b11000000 !"
b0 F
b0 ""
b0 B
b0 $"
b11 @
b11 x
b11 &"
b11 G"
b0 A
b0 w
b0 %"
b0 F"
b10010011000 =
b0 S
b0 i
b0 f
b0 n
b0 ~
b11000 o
b1 J"
b1000000100000000 >
b1000000100000000 |
b1000000100000000 ("
b100 {
b11 C
b11 9"
b1001000011000000 E
b1001000011000000 8"
b10 Q
b10 1"
1O
0Z
b10010011000 [
b10010011000 ."
b11010 d
b11000 Y
b11000 l
b11000 /"
b0 K
b0 k
b0 5"
b11 P
b11 2"
b10 M
b10 3"
b0 R
b0 m
b0 z
b0 0"
b111 6
b111 ;"
b1 5
b1 <"
b10 1
b10 >"
b10 4
b10 ="
b101 <
b101 t
b101 :"
b1 '
b1 C"
b100 #
b100 )"
b100 h
1!
#60000
0!
#65000
b110 /
b101 K"
1_
1`
1\
1c
0^
b1100000000101010 >
b1100000000101010 |
b1100000000101010 ("
b101 {
b10 J"
b11000000 =
b0 o
b1000 D
b1000 r
b1000 #"
b100000000 G
b100000000 !"
b100 @
b100 x
b100 &"
b100 G"
b101 #
b101 )"
b101 h
b1 (
b1 B"
b111 )
b111 A"
b10 $
b10 E"
b10 '
b10 C"
b101 ,
b101 @"
b0 6
b0 ;"
b10 5
b10 <"
b11 4
b11 ="
b0 <
b0 t
b0 :"
b11 Q
b11 1"
0O
1Z
1T
0N
b11000000 [
b11000000 ."
b11 d
b0 Y
b0 l
b0 /"
b0 P
b0 2"
b11 L
b11 y
b11 4"
b0 M
b0 3"
b1001 R
b1001 m
b1001 z
b1001 0"
b100 C
b100 9"
b1000000100000000 E
b1000000100000000 8"
1!
#70000
0!
#75000
b111 /
1b
0c
0_
0`
0\
b0 K"
b1100 D
b1100 r
b1100 #"
b101010 G
b101010 !"
b101010 F
b101010 ""
b10 ?
b10 '"
b101 B
b101 $"
b0 @
b0 x
b0 &"
b0 G"
b100000000 =
0H
b11 J"
b0 >
b0 |
b0 ("
b110 {
b101 C
b101 9"
b1100000000101010 E
b1100000000101010 8"
b100 d
b100 Q
b100 1"
1U
0T
1V
1N
b100000000 [
b100000000 ."
b100 L
b100 y
b100 4"
b1000 R
b1000 m
b1000 z
b1000 0"
b1001 6
b1001 ;"
b11 5
b11 <"
b11 1
b11 >"
17
02
b10 (
b10 B"
b0 )
b0 A"
b11 '
b11 C"
b0 ,
b0 @"
b110 #
b110 )"
b110 h
1!
#80000
0!
#85000
1]
1\
0b
b111 {
b101010 =
b101010 /
1g
b1111111111101010 o
b0 D
b0 r
b0 #"
b0 G
b0 !"
b0 F
b0 ""
b0 ?
b0 '"
b0 B
b0 $"
b111 #
b111 )"
b111 h
b11 (
b11 B"
b1001 )
b1001 A"
b11 $
b11 E"
0%
b1000 6
b1000 ;"
b100 5
b100 <"
b100 1
b100 >"
b100 4
b100 ="
18
07
19
12
b101 Q
b101 1"
1X
0Z
0U
0V
0N
b101010 [
b101010 ."
b1111111111101111 d
b101010 Y
b101010 l
b101010 /"
b10 K
b10 k
b10 5"
b101 P
b101 2"
b0 L
b0 y
b0 4"
b1100 R
b1100 m
b1100 z
b1100 0"
b110 C
b110 9"
b0 E
b0 8"
1!
#90000
0!
#95000
b0 =
b101011 /
0g
b0 o
b100 J"
b101010 {
b0 C
b0 9"
b0 Q
b0 1"
0X
b0 [
b0 ."
b0 d
b0 Y
b0 l
b0 /"
b0 K
b0 k
b0 5"
b0 P
b0 2"
b1111 R
b1111 m
b1111 z
b1111 0"
b1100 6
b1100 ;"
b101 5
b101 <"
b0 1
b0 >"
b0 4
b0 ="
08
09
02
b100 (
b100 B"
b1000 )
b1000 A"
b100 $
b100 E"
b100 '
b100 C"
1*
1%
b101010 #
b101010 )"
b101010 h
1!
#100000
0!
#105000
b101100 /
b101011 {
b0 J"
b101011 #
b101011 )"
b101011 h
b101 (
b101 B"
b1100 )
b1100 A"
b0 $
b0 E"
b0 '
b0 C"
0*
0%
b1111 6
b1111 ;"
b0 5
b0 <"
1O
1N
b0 R
b0 m
b0 z
b0 0"
b101010 C
b101010 9"
1!
#110000
0!
#115000
b101101 /
b101100 {
b101011 C
b101011 9"
b101010 d
b101010 Q
b101010 1"
b0 6
b0 ;"
12
b0 (
b0 B"
b1111 )
b1111 A"
b101100 #
b101100 )"
b101100 h
1!
#120000
0!
#125000
b101110 /
b101101 {
b101101 #
b101101 )"
b101101 h
b0 )
b0 A"
1%
b101010 5
b101010 <"
b101011 d
b101011 Q
b101011 1"
b101100 C
b101100 9"
1!
#130000
0!
#135000
b101111 /
b101110 {
b101101 C
b101101 9"
b101100 d
b101100 Q
b101100 1"
b101011 5
b101011 <"
b101010 (
b101010 B"
b101110 #
b101110 )"
b101110 h
1!
#140000
0!
#145000
b110000 /
b101111 {
b101111 #
b101111 )"
b101111 h
b101011 (
b101011 B"
b101100 5
b101100 <"
b101101 d
b101101 Q
b101101 1"
b101110 C
b101110 9"
1!
#150000
0!
#155000
b110001 /
b110000 {
b101111 C
b101111 9"
b101110 d
b101110 Q
b101110 1"
b101101 5
b101101 <"
b101100 (
b101100 B"
b110000 #
b110000 )"
b110000 h
1!
#160000
0!
#165000
b110010 /
b110001 {
b110001 #
b110001 )"
b110001 h
b101101 (
b101101 B"
b101110 5
b101110 <"
b101111 d
b101111 Q
b101111 1"
b110000 C
b110000 9"
1!
#170000
0!
#175000
b110011 /
b110010 {
b110001 C
b110001 9"
b110000 d
b110000 Q
b110000 1"
b101111 5
b101111 <"
b101110 (
b101110 B"
b110010 #
b110010 )"
b110010 h
1!
#180000
0!
#185000
b110100 /
b110011 {
b110011 #
b110011 )"
b110011 h
b101111 (
b101111 B"
b110000 5
b110000 <"
b110001 d
b110001 Q
b110001 1"
b110010 C
b110010 9"
1!
#190000
0!
#195000
b110101 /
b110100 {
b110011 C
b110011 9"
b110010 d
b110010 Q
b110010 1"
b110001 5
b110001 <"
b110000 (
b110000 B"
b110100 #
b110100 )"
b110100 h
1!
#200000
0!
#205000
b110110 /
b110101 {
b110101 #
b110101 )"
b110101 h
b110001 (
b110001 B"
b110010 5
b110010 <"
b110011 d
b110011 Q
b110011 1"
b110100 C
b110100 9"
1!
#210000
0!
#215000
b110111 /
b110110 {
b110101 C
b110101 9"
b110100 d
b110100 Q
b110100 1"
b110011 5
b110011 <"
b110010 (
b110010 B"
b110110 #
b110110 )"
b110110 h
1!
#220000
0!
#225000
b111000 /
b110111 {
b110111 #
b110111 )"
b110111 h
b110011 (
b110011 B"
b110100 5
b110100 <"
b110101 d
b110101 Q
b110101 1"
b110110 C
b110110 9"
1!
#230000
0!
#235000
b111001 /
b111000 {
b110111 C
b110111 9"
b110110 d
b110110 Q
b110110 1"
b110101 5
b110101 <"
b110100 (
b110100 B"
b111000 #
b111000 )"
b111000 h
1!
#240000
0!
#245000
b111010 /
b111001 {
b111001 #
b111001 )"
b111001 h
b110101 (
b110101 B"
b110110 5
b110110 <"
b110111 d
b110111 Q
b110111 1"
b111000 C
b111000 9"
1!
#250000
0!
#255000
b111011 /
b111010 {
b111001 C
b111001 9"
b111000 d
b111000 Q
b111000 1"
b110111 5
b110111 <"
b110110 (
b110110 B"
b111010 #
b111010 )"
b111010 h
1!
#260000
0!
#265000
b111100 /
b111011 {
b111011 #
b111011 )"
b111011 h
b110111 (
b110111 B"
b111000 5
b111000 <"
b111001 d
b111001 Q
b111001 1"
b111010 C
b111010 9"
1!
#270000
0!
#275000
b111101 /
b111100 {
b111011 C
b111011 9"
b111010 d
b111010 Q
b111010 1"
b111001 5
b111001 <"
b111000 (
b111000 B"
b111100 #
b111100 )"
b111100 h
1!
#280000
0!
#285000
b111110 /
b111101 {
b111101 #
b111101 )"
b111101 h
b111001 (
b111001 B"
b111010 5
b111010 <"
b111011 d
b111011 Q
b111011 1"
b111100 C
b111100 9"
1!
#290000
0!
#295000
b111111 /
b111110 {
b111101 C
b111101 9"
b111100 d
b111100 Q
b111100 1"
b111011 5
b111011 <"
b111010 (
b111010 B"
b111110 #
b111110 )"
b111110 h
1!
#300000
0!
#305000
b1000000 /
b111111 {
b111111 #
b111111 )"
b111111 h
b111011 (
b111011 B"
b111100 5
b111100 <"
b111101 d
b111101 Q
b111101 1"
b111110 C
b111110 9"
1!
#310000
0!
#315000
b1000001 /
b1000000 {
b111111 C
b111111 9"
b111110 d
b111110 Q
b111110 1"
b111101 5
b111101 <"
b111100 (
b111100 B"
b1000000 #
b1000000 )"
b1000000 h
1!
#320000
0!
#325000
b1000010 /
b1000001 {
b1000001 #
b1000001 )"
b1000001 h
b111101 (
b111101 B"
b111110 5
b111110 <"
b111111 d
b111111 Q
b111111 1"
b1000000 C
b1000000 9"
1!
#330000
0!
#335000
b1000011 /
b1000010 {
b1000001 C
b1000001 9"
b1000000 d
b1000000 Q
b1000000 1"
b111111 5
b111111 <"
b111110 (
b111110 B"
b1000010 #
b1000010 )"
b1000010 h
1!
#340000
0!
#345000
b1000100 /
b1000011 {
b1000011 #
b1000011 )"
b1000011 h
b111111 (
b111111 B"
b1000000 5
b1000000 <"
b1000001 d
b1000001 Q
b1000001 1"
b1000010 C
b1000010 9"
1!
#350000
0!
#355000
b1000101 /
b1000100 {
b1000011 C
b1000011 9"
b1000010 d
b1000010 Q
b1000010 1"
b1000001 5
b1000001 <"
b1000000 (
b1000000 B"
b1000100 #
b1000100 )"
b1000100 h
1!
#360000
0!
#365000
b1000110 /
b1000101 {
b1000101 #
b1000101 )"
b1000101 h
b1000001 (
b1000001 B"
b1000010 5
b1000010 <"
b1000011 d
b1000011 Q
b1000011 1"
b1000100 C
b1000100 9"
1!
#370000
0!
#375000
b1000111 /
b1000110 {
b1000101 C
b1000101 9"
b1000100 d
b1000100 Q
b1000100 1"
b1000011 5
b1000011 <"
b1000010 (
b1000010 B"
b1000110 #
b1000110 )"
b1000110 h
1!
#380000
0!
#385000
b1001000 /
b1000111 {
b1000111 #
b1000111 )"
b1000111 h
b1000011 (
b1000011 B"
b1000100 5
b1000100 <"
b1000101 d
b1000101 Q
b1000101 1"
b1000110 C
b1000110 9"
1!
#390000
0!
#395000
b1001001 /
b1001000 {
b1000111 C
b1000111 9"
b1000110 d
b1000110 Q
b1000110 1"
b1000101 5
b1000101 <"
b1000100 (
b1000100 B"
b1001000 #
b1001000 )"
b1001000 h
1!
#400000
0!
#405000
b1001010 /
b1001001 {
b1001001 #
b1001001 )"
b1001001 h
b1000101 (
b1000101 B"
b1000110 5
b1000110 <"
b1000111 d
b1000111 Q
b1000111 1"
b1001000 C
b1001000 9"
1!
#410000
0!
#415000
b1001011 /
b1001010 {
b1001001 C
b1001001 9"
b1001000 d
b1001000 Q
b1001000 1"
b1000111 5
b1000111 <"
b1000110 (
b1000110 B"
b1001010 #
b1001010 )"
b1001010 h
1!
#420000
0!
#425000
b1001100 /
b1001011 {
b1001011 #
b1001011 )"
b1001011 h
b1000111 (
b1000111 B"
b1001000 5
b1001000 <"
b1001001 d
b1001001 Q
b1001001 1"
b1001010 C
b1001010 9"
1!
#430000
0!
#435000
b1001101 /
b1001100 {
b1001011 C
b1001011 9"
b1001010 d
b1001010 Q
b1001010 1"
b1001001 5
b1001001 <"
b1001000 (
b1001000 B"
b1001100 #
b1001100 )"
b1001100 h
1!
#440000
0!
#445000
b1001110 /
b1001101 {
b1001101 #
b1001101 )"
b1001101 h
b1001001 (
b1001001 B"
b1001010 5
b1001010 <"
b1001011 d
b1001011 Q
b1001011 1"
b1001100 C
b1001100 9"
1!
#450000
0!
#455000
b1001111 /
b1001110 {
b1001101 C
b1001101 9"
b1001100 d
b1001100 Q
b1001100 1"
b1001011 5
b1001011 <"
b1001010 (
b1001010 B"
b1001110 #
b1001110 )"
b1001110 h
1!
#460000
0!
#465000
b1010000 /
b1001111 {
b1001111 #
b1001111 )"
b1001111 h
b1001011 (
b1001011 B"
b1001100 5
b1001100 <"
b1001101 d
b1001101 Q
b1001101 1"
b1001110 C
b1001110 9"
1!
#470000
0!
#475000
b1010001 /
b1010000 {
b1001111 C
b1001111 9"
b1001110 d
b1001110 Q
b1001110 1"
b1001101 5
b1001101 <"
b1001100 (
b1001100 B"
b1010000 #
b1010000 )"
b1010000 h
1!
#480000
0!
#485000
b1010010 /
b1010001 {
b1010001 #
b1010001 )"
b1010001 h
b1001101 (
b1001101 B"
b1001110 5
b1001110 <"
b1001111 d
b1001111 Q
b1001111 1"
b1010000 C
b1010000 9"
1!
#490000
0!
#495000
b1010011 /
b1010010 {
b1010001 C
b1010001 9"
b1010000 d
b1010000 Q
b1010000 1"
b1001111 5
b1001111 <"
b1001110 (
b1001110 B"
b1010010 #
b1010010 )"
b1010010 h
1!
#500000
0!
#505000
b1010100 /
b1010011 {
b1010011 #
b1010011 )"
b1010011 h
b1001111 (
b1001111 B"
b1010000 5
b1010000 <"
b1010001 d
b1010001 Q
b1010001 1"
b1010010 C
b1010010 9"
1!
#510000
0!
#515000
b1010101 /
b1010100 {
b1010011 C
b1010011 9"
b1010010 d
b1010010 Q
b1010010 1"
b1010001 5
b1010001 <"
b1010000 (
b1010000 B"
b1010100 #
b1010100 )"
b1010100 h
1!
#520000
0!
#525000
b1010110 /
b1010101 {
b1010101 #
b1010101 )"
b1010101 h
b1010001 (
b1010001 B"
b1010010 5
b1010010 <"
b1010011 d
b1010011 Q
b1010011 1"
b1010100 C
b1010100 9"
1!
#530000
0!
#535000
b1010111 /
b1010110 {
b1010101 C
b1010101 9"
b1010100 d
b1010100 Q
b1010100 1"
b1010011 5
b1010011 <"
b1010010 (
b1010010 B"
b1010110 #
b1010110 )"
b1010110 h
1!
#540000
0!
#545000
b1011000 /
b1010111 {
b1010111 #
b1010111 )"
b1010111 h
b1010011 (
b1010011 B"
b1010100 5
b1010100 <"
b1010101 d
b1010101 Q
b1010101 1"
b1010110 C
b1010110 9"
1!
#550000
0!
#555000
b1011001 /
b1011000 {
b1010111 C
b1010111 9"
b1010110 d
b1010110 Q
b1010110 1"
b1010101 5
b1010101 <"
b1010100 (
b1010100 B"
b1011000 #
b1011000 )"
b1011000 h
1!
#560000
0!
#565000
b1011010 /
b1011001 {
b1011001 #
b1011001 )"
b1011001 h
b1010101 (
b1010101 B"
b1010110 5
b1010110 <"
b1010111 d
b1010111 Q
b1010111 1"
b1011000 C
b1011000 9"
1!
#570000
0!
#575000
b1011011 /
b1011010 {
b1011001 C
b1011001 9"
b1011000 d
b1011000 Q
b1011000 1"
b1010111 5
b1010111 <"
b1010110 (
b1010110 B"
b1011010 #
b1011010 )"
b1011010 h
1!
#580000
0!
#585000
b1011100 /
b1011011 {
b1011011 #
b1011011 )"
b1011011 h
b1010111 (
b1010111 B"
b1011000 5
b1011000 <"
b1011001 d
b1011001 Q
b1011001 1"
b1011010 C
b1011010 9"
1!
#590000
0!
#595000
b1011101 /
b1011100 {
b1011011 C
b1011011 9"
b1011010 d
b1011010 Q
b1011010 1"
b1011001 5
b1011001 <"
b1011000 (
b1011000 B"
b1011100 #
b1011100 )"
b1011100 h
1!
#600000
0!
#605000
b1011110 /
b1011101 {
b1011101 #
b1011101 )"
b1011101 h
b1011001 (
b1011001 B"
b1011010 5
b1011010 <"
b1011011 d
b1011011 Q
b1011011 1"
b1011100 C
b1011100 9"
1!
#610000
0!
#615000
b1011111 /
b1011110 {
b1011101 C
b1011101 9"
b1011100 d
b1011100 Q
b1011100 1"
b1011011 5
b1011011 <"
b1011010 (
b1011010 B"
b1011110 #
b1011110 )"
b1011110 h
1!
